{
  "name": "TokenizedContent",
  "base": "PersistedModel",
  "idInjection": true,
  "options": {
    "validateUpsert": true
  },
  "properties": {
    "content": {
      "type": "string"
    },
    "urlID": {
      "type": "string",
      "required": true
    }
  },
  "validations": [],
  "relations": {
    "url": {
      "type": "belongsTo",
      "model": "urls",
      "foreignKey": "urlID"
    }
  },
  "acls": [],
  "methods": {}
}
